\relax 
\catcode`"\active
\bibstyle{splncs}
\citation{ddosAttack}
\citation{ddosAttack}
\citation{ddosAttack}
\select@language{portuguese}
\@writefile{toc}{\select@language{portuguese}}
\@writefile{lof}{\select@language{portuguese}}
\@writefile{lot}{\select@language{portuguese}}
\@writefile{toc}{\contentsline {title}{Seguran\IeC {\c c}a e Privacidade em Redes}{1}}
\@writefile{toc}{\authcount {3}}
\@writefile{toc}{\contentsline {author}{Jo\IeC {\~a}o Manuel Ferreira da Silva \and Rui Jorge Ar\IeC {\'a}ujo Freitas \and Oct\IeC {\'a}vio Jos\IeC {\'e} Azevedo Maia}{1}}
\@writefile{toc}{\contentsline {section}{\numberline {1}Introdu\IeC {\c c}\IeC {\~a}o}{1}}
\@writefile{toc}{\contentsline {section}{\numberline {2}Distributed Denial of Service}{1}}
\@writefile{lof}{\contentsline {figure}{\numberline {1}{\ignorespaces Metodologia de ataque.\cite  {ddosAttack}}}{2}}
\@writefile{toc}{\contentsline {subsection}{\numberline {2.1}T\IeC {\'e}cnicas de ataque}{2}}
\@writefile{lof}{\contentsline {figure}{\numberline {2}{\ignorespaces Tipos de ataque DDoS.\cite  {ddosAttack}}}{2}}
\@writefile{toc}{\contentsline {subsubsection}{Flood attacks}{2}}
\@writefile{toc}{\contentsline {subsubsection}{PoD ATTACK}{2}}
\citation{PoD}
\citation{synflood}
\@writefile{lof}{\contentsline {figure}{\numberline {3}{\ignorespaces PoD attack.\cite  {PoD}}}{3}}
\@writefile{toc}{\contentsline {subsubsection}{SYN Flood}{3}}
\@writefile{toc}{\contentsline {subsubsection}{Amplification Attack}{3}}
\@writefile{toc}{\contentsline {subsubsection}{Malformed packet attack}{3}}
\citation{ddosAttack}
\citation{ddosAttack}
\citation{ddosAttack}
\citation{ddosAttack}
\citation{ddosAttack}
\citation{ddosAttack}
\@writefile{lof}{\contentsline {figure}{\numberline {4}{\ignorespaces Diagrma de um ataque por SYN Flood.\cite  {synflood}}}{4}}
\@writefile{toc}{\contentsline {subsection}{\numberline {2.2}Trusted IP List}{4}}
\@writefile{toc}{\contentsline {subsection}{\numberline {2.3}Historial de ataques DDoS}{4}}
\@writefile{toc}{\contentsline {section}{\numberline {3}Privacidade em Redes}{5}}
\@writefile{toc}{\contentsline {subsection}{\numberline {3.1}Virtual Private Network}{5}}
\newlabel{sec:vpnmain}{{3.1}{5}}
\newlabel{sec:vpnIPSec}{{3.1}{5}}
\@writefile{toc}{\contentsline {subsubsection}{IP Security Protocol}{5}}
\newlabel{sec:vpnL2TP}{{3.1}{5}}
\@writefile{toc}{\contentsline {subsubsection}{Layer Two Tunneling Protocol}{5}}
\citation{proxy_imagem}
\citation{geo_IP}
\citation{proxy_china}
\@writefile{toc}{\contentsline {subsection}{\numberline {3.2}Proxy}{6}}
\@writefile{lof}{\contentsline {figure}{\numberline {5}{\ignorespaces Funcionamento de um proxy.}}{6}}
\@writefile{toc}{\contentsline {subsubsection}{Utilidade dos proxies}{6}}
\citation{torsite}
\@writefile{toc}{\contentsline {subsubsection}{Tipos de proxy}{7}}
\@writefile{toc}{\contentsline {subsection}{\numberline {3.3}The Onion Router}{7}}
\newlabel{sec:tor}{{3.3}{7}}
\newlabel{sec:connecttor}{{3.3}{7}}
\@writefile{toc}{\contentsline {subsubsection}{Conex\IeC {\~a}o \IeC {\`a} rede TOR}{7}}
\citation{youtubetor}
\@writefile{lof}{\contentsline {figure}{\numberline {6}{\ignorespaces Estrutura Rede TOR.\cite  {torsite}}}{8}}
\newlabel{sec:torcomu}{{3.3}{8}}
\@writefile{toc}{\contentsline {subsubsection}{Comunica\IeC {\c c}\IeC {\~o}es pelo TOR}{8}}
\newlabel{sec:torconc}{{3.3}{8}}
\citation{freenet_site}
\citation{freenet_paper_5}
\citation{freenet_paper_1}
\citation{freenet_paper_3}
\@writefile{toc}{\contentsline {subsubsection}{Considera\IeC {\c c}\IeC {\~o}es e cuidados a ter da utiliza\IeC {\c c}\IeC {\~a}o do TOR}{9}}
\@writefile{lof}{\contentsline {figure}{\numberline {7}{\ignorespaces Comunica\IeC {\c c}\IeC {\~o}es pelo TOR.\cite  {youtubetor}}}{9}}
\citation{freenet_site}
\citation{freenet_paper_3}
\citation{freenet_paper_2}
\citation{freenet_paper_1}
\citation{freenet_site}
\citation{freenet_paper_4}
\@writefile{toc}{\contentsline {subsection}{\numberline {3.4}Freenet}{10}}
\@writefile{toc}{\contentsline {subsubsection}{Qual \IeC {\'e} o objetivo do projeto Freenet?}{10}}
\@writefile{toc}{\contentsline {subsubsection}{O que \IeC {\'e} o Freenet?}{10}}
\@writefile{toc}{\contentsline {subsubsection}{Arquitetura da rede Freenet}{10}}
\@writefile{toc}{\contentsline {subsubsection}{Como funciona?}{10}}
\citation{freenet_graph}
\citation{freenet_paper_5}
\citation{anonOnion}
\citation{freenet_site}
\bibcite{ddosAttack}{1}
\@writefile{lof}{\contentsline {figure}{\numberline {8}{\ignorespaces Comunica\IeC {\c c}\IeC {\~a}o entre os nodos Freenet.}}{12}}
\@writefile{toc}{\contentsline {subsection}{\numberline {3.5}Em que difere do TOR?}{12}}
\@writefile{toc}{\contentsline {section}{\numberline {4}Conclus\IeC {\~a}o}{12}}
\bibcite{ipspoofing}{2}
\bibcite{iptrace}{3}
\bibcite{PoD}{4}
\bibcite{Smurf}{5}
\bibcite{synflood}{6}
\bibcite{synflood_2}{7}
\bibcite{TorHardware}{8}
\bibcite{anonOnion}{9}
\bibcite{torsite}{10}
\bibcite{vpn}{11}
\bibcite{youtubetor}{12}
\bibcite{proxy_china}{13}
\bibcite{geo_IP}{14}
\bibcite{proxy_imagem}{15}
\bibcite{freenet_site}{16}
\bibcite{freenet_graph}{17}
\bibcite{freenet_paper_1}{18}
\bibcite{freenet_paper_2}{19}
\bibcite{freenet_paper_3}{20}
\bibcite{freenet_paper_4}{21}
\bibcite{freenet_paper_5}{22}
